[{"teamId":1,"leagueId":1,"team":"FC Barcelona"}
,{"teamId":2,"leagueId":1,"team":"Atl Madrid"}
,{"teamId":3,"leagueId":1,"team":"Real Madrid"}
,{"teamId":4,"leagueId":1,"team":"Valencia CF"}
,{"teamId":5,"leagueId":1,"team":"Sevilla FC"}
,{"teamId":6,"leagueId":1,"team":"Villarreal CF"}
,{"teamId":7,"leagueId":1,"team":"Girona FC"}
,{"teamId":8,"leagueId":1,"team":"Real Betis"}
,{"teamId":9,"leagueId":1,"team":"SD Eibar"}
,{"teamId":10,"leagueId":1,"team":"RC Celta de Vigo"}
,{"teamId":11,"leagueId":2,"team":"Huesca"}
,{"teamId":12,"leagueId":2,"team":"Rayo Vallecano"}
,{"teamId":13,"leagueId":2,"team":"Cadiz"}
,{"teamId":14,"leagueId":2,"team":"Real Sporting"}
,{"teamId":15,"leagueId":2,"team":"Granada"}
,{"teamId":16,"leagueId":2,"team":"Osasuna"}
,{"teamId":17,"leagueId":2,"team":"Real Oviedo"}
,{"teamId":18,"leagueId":2,"team":"Real Zaragoza"}
,{"teamId":19,"leagueId":2,"team":"Numancia"}
,{"teamId":20,"leagueId":2,"team":"Real Valladolid"}
,{"teamId":21,"leagueId":3,"team":"Manchester City"}
,{"teamId":22,"leagueId":3,"team":"Manchester United"}
,{"teamId":23,"leagueId":3,"team":"Tottenham"}
,{"teamId":24,"leagueId":3,"team":"Liverpool"}
,{"teamId":25,"leagueId":3,"team":"Chelsea"}
,{"teamId":26,"leagueId":3,"team":"Arsenal"}
,{"teamId":27,"leagueId":3,"team":"Burnley"}
,{"teamId":28,"leagueId":3,"team":"Leicester"}
,{"teamId":29,"leagueId":3,"team":"Everton"}
,{"teamId":30,"leagueId":3,"team":"Watford"}
,{"teamId":31,"leagueId":4,"team":"Wolverhampton"}
,{"teamId":32,"leagueId":4,"team":"Cardiff City"}
,{"teamId":33,"leagueId":4,"team":"Aston Villa"}
,{"teamId":34,"leagueId":4,"team":"Fullham"}
,{"teamId":35,"leagueId":4,"team":"Derby Country"}
,{"teamId":36,"leagueId":4,"team":"Middlesbrough"}
,{"teamId":37,"leagueId":4,"team":"Sheffield United"}
,{"teamId":38,"leagueId":4,"team":"Bristol City"}
,{"teamId":39,"leagueId":4,"team":"Preston North End"}
,{"teamId":40,"leagueId":4,"team":"Millwall"}
,{"teamId":41,"leagueId":5,"team":"Juventus"}
,{"teamId":42,"leagueId":5,"team":"Napoli"}
,{"teamId":43,"leagueId":5,"team":"Roma"}
,{"teamId":44,"leagueId":5,"team":"Lazio"}
,{"teamId":45,"leagueId":5,"team":"Inter"}
,{"teamId":46,"leagueId":5,"team":"Milan"}
,{"teamId":47,"leagueId":5,"team":"Sampdoria"}
,{"teamId":48,"leagueId":5,"team":"Atalanta"}
,{"teamId":49,"leagueId":5,"team":"Fiorentina"}
,{"teamId":50,"leagueId":5,"team":"Torino"}
,{"teamId":51,"leagueId":6,"team":"Empoli"}
,{"teamId":52,"leagueId":6,"team":"Frosinone"}
,{"teamId":53,"leagueId":6,"team":"Palermo"}
,{"teamId":54,"leagueId":6,"team":"Cittadella"}
,{"teamId":55,"leagueId":6,"team":"Venezia"}
,{"teamId":56,"leagueId":6,"team":"AS Bari"}
,{"teamId":57,"leagueId":6,"team":"Parma"}
,{"teamId":58,"leagueId":6,"team":"Perugia"}
,{"teamId":59,"leagueId":6,"team":"Spezia"}
,{"teamId":60,"leagueId":6,"team":"Carpi"}
,{"teamId":61,"leagueId":7,"team":"Bayern Munchen"}
,{"teamId":62,"leagueId":7,"team":"Schalke 04"}
,{"teamId":63,"leagueId":7,"team":"Borussia Dormund"}
,{"teamId":64,"leagueId":7,"team":"Bayern Leverkusen"}
,{"teamId":65,"leagueId":7,"team":"Eintracht Frankfurt"}
,{"teamId":66,"leagueId":7,"team":"RB Leipzig"}
,{"teamId":67,"leagueId":7,"team":"Hoffenheim"}
,{"teamId":68,"leagueId":7,"team":"FC Ausburg"}
,{"teamId":69,"leagueId":7,"team":"Borussia Monchengladbach"}
,{"teamId":70,"leagueId":7,"team":"Stuttgart"}
,{"teamId":71,"leagueId":8,"team":"Fortuna Dusseldorf"}
,{"teamId":72,"leagueId":8,"team":"Nurnberg"}
,{"teamId":73,"leagueId":8,"team":"Holstein Kiel"}
,{"teamId":74,"leagueId":8,"team":"Jahn Regensburg"}
,{"teamId":75,"leagueId":8,"team":"Arminia Bielefeld"}
,{"teamId":76,"leagueId":8,"team":"MSV Diusburg"}
,{"teamId":77,"leagueId":8,"team":"Sandhausen"}
,{"teamId":78,"leagueId":8,"team":"1 FC Union Berlin"}
,{"teamId":79,"leagueId":8,"team":"Dynamo Dresden"}
,{"teamId":80,"leagueId":8,"team":"FC St Pauli"}
,{"teamId":81,"leagueId":9,"team":"PSG"}
,{"teamId":82,"leagueId":9,"team":"Monaco"}
,{"teamId":83,"leagueId":9,"team":"Olympique Marseille"}
,{"teamId":84,"leagueId":9,"team":"Olympique Lyon"}
,{"teamId":85,"leagueId":9,"team":"Nantes"}
,{"teamId":86,"leagueId":9,"team":"Rennes"}
,{"teamId":87,"leagueId":9,"team":"Nice"}
,{"teamId":88,"leagueId":9,"team":"Montpellier"}
,{"teamId":89,"leagueId":9,"team":"Girondins Bourdeaux"}
,{"teamId":90,"leagueId":9,"team":"Dijon FCO"}
,{"teamId":91,"leagueId":10,"team":"Stade de Reims"}
,{"teamId":92,"leagueId":10,"team":"Nîmes"}
,{"teamId":93,"leagueId":10,"team":"Ajaccio"}
,{"teamId":94,"leagueId":10,"team":"Lorient"}
,{"teamId":95,"leagueId":10,"team":"Paris FC"}
,{"teamId":96,"leagueId":10,"team":"Clermont"}
,{"teamId":97,"leagueId":10,"team":"Chateauroux"}
,{"teamId":98,"leagueId":10,"team":"Le Havre"}
,{"teamId":99,"leagueId":10,"team":"Stade Brestois"}
,{"teamId":100,"leagueId":10,"team":"Sochaux"}]
